	####### B140991 R script #######

library("psych", quietly = T)
[1] 1
[1] "psych"     "readr"     "stats"     "graphics"  "grDevices" "utils"     "datasets"  "methods"   "base"     
load(url("https://edin.ac/2QCZNVu"))
[1] 2
[1] "drinkdriving" "officer_inc" 
head(drinkdriving)
[1] 3
# A tibble: 6 x 7
    age nighttime prior_offence speed   bac outcome incident_id
  <dbl> <chr>     <chr>         <dbl> <dbl> <chr>   <chr>      
1    39 night     N             48.0   17.7 fine    inc_1      
2    28 day       N             43.8   22.1 fine    inc_2      
3    38 night     DR50          47.3   32.8 fine    inc_3      
4    51 night     N             17.2   20.5 warning inc_4      
5    56 night     N              1.95  29.4 warning inc_5      
6    36 day       N             41.4   19.1 fine    inc_6      
summary(drinkdriving)
[1] 4
      age          nighttime         prior_offence          speed             bac           outcome          incident_id       
 Min.   : 14.00   Length:250         Length:250         Min.   :  0.00   Min.   : 3.987   Length:250         Length:250        
 1st Qu.: 30.00   Class :character   Class :character   1st Qu.: 30.92   1st Qu.:19.264   Class :character   Class :character  
 Median : 40.50   Mode  :character   Mode  :character   Median : 40.64   Median :23.609   Mode  :character   Mode  :character  
 Mean   : 46.00                                         Mean   : 40.49   Mean   :23.605                                        
 3rd Qu.: 55.25                                         3rd Qu.: 48.84   3rd Qu.:27.898                                        
 Max.   :297.00                                         Max.   :120.34   Max.   :65.764                                        
 NA's   :22                                                              NA's   :5                                             
describe(drinkdriving)
[1] 5
               vars   n mean    sd median trimmed   mad min  max range skew kurtosis   se
age               1 228   46 33.35   40.5   42.34 18.53  14  297   283  5.5    38.49 2.21
nighttime*        2 250  NaN    NA     NA     NaN    NA Inf -Inf  -Inf   NA       NA   NA
prior_offence*    3 250  NaN    NA     NA     NaN    NA Inf -Inf  -Inf   NA       NA   NA
 [ reached 'max' / getOption("max.print") -- omitted 4 rows ]
…
    Null deviance: 38.784  on 249  degrees of freedom
Residual deviance: 38.738  on 248  degrees of freedom
AIC: 249.31

Number of Fisher Scoring iterations: 2

load(url("https://edin.ac/2QCZNVu"))
[1] 142
[1] "drinkdriving" "officer_inc" 
drinkdriving_Q4 <- drinkdriving
[1] 143
drinkdriving_Q4

# A tibble: 250 x 7
     age nighttime prior_offence speed   bac outcome incident_id
   <dbl> <chr>     <chr>         <dbl> <dbl> <chr>   <chr>      
 1    39 night     N             48.0   17.7 fine    inc_1      
 2    28 day       N             43.8   22.1 fine    inc_2      
 3    38 night     DR50          47.3   32.8 fine    inc_3      
 4    51 night     N             17.2   20.5 warning inc_4      
 5    56 night     N              1.95  29.4 warning inc_5      
 6    36 day       N             41.4   19.1 fine    inc_6      
 7    81 night     N              1.01  21.4 warning inc_7      
 8    49 day       N             34.4   26.8 fine    inc_8      
 9    32 night     N             63.7   23.8 fine    inc_9      
10    60 night     N              2.53  24.4 warning inc_10     
# … with 240 more rows
…
