…
Residual standard error: 0.05505 on 214 degrees of freedom
  (32 observations deleted due to missingness)
Multiple R-squared:  0.2284,	Adjusted R-squared:  0.2176 
F-statistic: 21.12 on 3 and 214 DF,  p-value: 5.044e-12

m_22 <- update(m_22, ~. - speed)
[1] 46
drinkdriving$is_day <- ifelse(drinkdriving$nighttime == "day", 
    1, 0)
[1] 47
drinkdriving

# A tibble: 250 x 8
     age nighttime prior_offence speed   bac outcome incident_id is_day
   <dbl> <fct>     <chr>         <dbl> <dbl> <fct>   <chr>        <dbl>
 1    39 night     N             48.0  0.177 fine    inc_1            0
 2    28 day       N             43.8  0.221 fine    inc_2            1
 3    38 night     DR50          47.3  0.328 fine    inc_3            0
 4    51 night     N             17.2  0.205 warning inc_4            0
 5    56 night     N              1.95 0.294 warning inc_5            0
 6    36 day       N             41.4  0.191 fine    inc_6            1
 7    81 night     N              1.01 0.214 warning inc_7            0
 8    49 day       N             34.4  0.268 fine    inc_8            1
 9    32 night     N             63.7  0.238 fine    inc_9            0
10    60 night     N              2.53 0.244 warning inc_10           0
# … with 240 more rows
…
