…
install.packages("car")
[1] 2
library(psych, quietly = T)
[1] 3
[1] "psych"     "readr"     "stats"     "graphics"  "grDevices" "utils"     "datasets"  "methods"   "base"     
library(car, quietly = T)
[1] 4
 [1] "car"       "carData"   "psych"     "readr"     "stats"     "graphics"  "grDevices" "utils"     "datasets"  "methods"  
[11] "base"     
load(url("https://edin.ac/2QCZNVu"))
[1] 5
[1] "drinkdriving" "officer_inc" 
head(drinkdriving)
[1] 6
# A tibble: 6 x 7
    age nighttime prior_offence speed   bac outcome incident_id
  <dbl> <chr>     <chr>         <dbl> <dbl> <chr>   <chr>      
1    39 night     N             48.0   17.7 fine    inc_1      
2    28 day       N             43.8   22.1 fine    inc_2      
3    38 night     DR50          47.3   32.8 fine    inc_3      
4    51 night     N             17.2   20.5 warning inc_4      
5    56 night     N              1.95  29.4 warning inc_5      
6    36 day       N             41.4   19.1 fine    inc_6      
head(officer_inc)
[1] 7
  officer incident_id
1      AS     inc_189
2      IT      inc_50
3      IT     inc_159
4      AS     inc_178
5      IT     inc_184
6      AS     inc_198
describe(drinkdriving)
[1] 8
               vars   n mean    sd median trimmed   mad min  max range skew kurtosis   se
age               1 228   46 33.35   40.5   42.34 18.53  14  297   283  5.5    38.49 2.21
nighttime*        2 250  NaN    NA     NA     NaN    NA Inf -Inf  -Inf   NA       NA   NA
prior_offence*    3 250  NaN    NA     NA     NaN    NA Inf -Inf  -Inf   NA       NA   NA
 [ reached 'max' / getOption("max.print") -- omitted 4 rows ]
…
