…
	Welch Two Sample t-test

data:  speed by nighttime
t = -0.13251, df = 146.8, p-value = 0.8948
alternative hypothesis: true difference in means is not equal to 0
95 percent confidence interval:
 -4.202750  3.674557
sample estimates:
mean in group 0 mean in group 1 
       38.88877        39.15286 

drinkdriving

# A tibble: 220 x 7
     age nighttime prior_offence speed   bac outcome incident_id
   <dbl> <chr>     <chr>         <dbl> <dbl> <chr>   <chr>      
 1    39 1         N             48.0   17.7 fine    inc_1      
 2    28 0         N             43.8   22.1 fine    inc_2      
 3    38 1         DR50          47.3   32.8 fine    inc_3      
 4    51 1         N             17.2   20.5 warning inc_4      
 5    56 1         N              1.95  29.4 warning inc_5      
 6    36 0         N             41.4   19.1 fine    inc_6      
 7    81 1         N              1.01  21.4 warning inc_7      
 8    49 0         N             34.4   26.8 fine    inc_8      
 9    32 1         N             63.7   23.8 fine    inc_9      
10    60 1         N              2.53  24.4 warning inc_10     
# … with 210 more rows
…
(Dispersion parameter for gaussian family taken to be 0.1022033)

    Null deviance: 34.595  on 219  degrees of freedom
Residual deviance: 22.076  on 216  degrees of freedom
AIC: 128.52

Number of Fisher Scoring iterations: 2

drinkdriving

# A tibble: 220 x 7
     age nighttime prior_offence speed   bac outcome incident_id
   <dbl> <chr>             <dbl> <dbl> <dbl>   <dbl> <chr>      
 1    39 1                     1 48.0   17.7       1 inc_1      
 2    28 0                     1 43.8   22.1       1 inc_2      
 3    38 1                     0 47.3   32.8       1 inc_3      
 4    51 1                     1 17.2   20.5       0 inc_4      
 5    56 1                     1  1.95  29.4       0 inc_5      
 6    36 0                     1 41.4   19.1       1 inc_6      
 7    81 1                     1  1.01  21.4       0 inc_7      
 8    49 0                     1 34.4   26.8       1 inc_8      
 9    32 1                     1 63.7   23.8       1 inc_9      
10    60 1                     1  2.53  24.4       0 inc_10     
# … with 210 more rows
…
