…
[1] 10
drinkdriving$nighttime <- as.factor(drinkdriving$nighttime)
[1] 11
drinkdriving$prior_offence <- as.factor(drinkdriving$prior_offence)
[1] 12
drinkdriving$outcome <- as.factor(drinkdriving$outcome)
[1] 13
drinkdriving$incident_id <- as.factor(drinkdriving$incident_id)
[1] 14
officer_inc$officer[is.na(officer_inc$officer)] <- sample(c("AS", 
    "IT", "NP"), size = 1)
[1] 15
drinkdriving[!complete.cases(drinkdriving), ]
[1] 16
# A tibble: 30 x 7
     age nighttime prior_offence speed   bac outcome incident_id
   <dbl> <fct>     <fct>         <dbl> <dbl> <fct>   <fct>      
 1    NA night     N              59.5 36.1  fine    inc_17     
 2    NA night     N              59.5 36.1  fine    inc_22     
 3    NA night     N              24.5  3.99 warning inc_51     
 4    NA night     N              55.5 25.1  fine    inc_54     
 5    NA night     N              67.4 35.5  fine    inc_55     
 6    NA night     DR50           49.1 24.5  fine    inc_67     
 7    NA night     N              50.1 28.8  fine    inc_70     
 8    NA night     N              48.9 30.6  fine    inc_71     
 9    NA night     N              51.8 35.9  fine    inc_82     
10    66 night     N              34.2 NA    fine    inc_87     
# … with 20 more rows
na.omit(drinkdriving)
[1] 17
# A tibble: 220 x 7
     age nighttime prior_offence speed   bac outcome incident_id
   <dbl> <fct>     <fct>         <dbl> <dbl> <fct>   <fct>      
 1    39 night     N             48.0   17.7 fine    inc_1      
 2    28 day       N             43.8   22.1 fine    inc_2      
 3    38 night     DR50          47.3   32.8 fine    inc_3      
 4    51 night     N             17.2   20.5 warning inc_4      
 5    56 night     N              1.95  29.4 warning inc_5      
 6    36 day       N             41.4   19.1 fine    inc_6      
 7    81 night     N              1.01  21.4 warning inc_7      
 8    49 day       N             34.4   26.8 fine    inc_8      
 9    32 night     N             63.7   23.8 fine    inc_9      
10    60 night     N              2.53  24.4 warning inc_10     
# … with 210 more rows
omitdrinkdriving <- na.omit(drinkdriving)
[1] 18
omitdrinkdriving

# A tibble: 220 x 7
     age nighttime prior_offence speed   bac outcome incident_id
   <dbl> <fct>     <fct>         <dbl> <dbl> <fct>   <fct>      
 1    39 night     N             48.0   17.7 fine    inc_1      
 2    28 day       N             43.8   22.1 fine    inc_2      
 3    38 night     DR50          47.3   32.8 fine    inc_3      
 4    51 night     N             17.2   20.5 warning inc_4      
 5    56 night     N              1.95  29.4 warning inc_5      
 6    36 day       N             41.4   19.1 fine    inc_6      
 7    81 night     N              1.01  21.4 warning inc_7      
 8    49 day       N             34.4   26.8 fine    inc_8      
 9    32 night     N             63.7   23.8 fine    inc_9      
10    60 night     N              2.53  24.4 warning inc_10     
# … with 210 more rows


drinkdriving

# A tibble: 250 x 7
     age nighttime prior_offence speed   bac outcome incident_id
   <dbl> <fct>     <fct>         <dbl> <dbl> <fct>   <fct>      
 1    39 night     N             48.0   17.7 fine    inc_1      
 2    28 day       N             43.8   22.1 fine    inc_2      
 3    38 night     DR50          47.3   32.8 fine    inc_3      
 4    51 night     N             17.2   20.5 warning inc_4      
 5    56 night     N              1.95  29.4 warning inc_5      
 6    36 day       N             41.4   19.1 fine    inc_6      
 7    81 night     N              1.01  21.4 warning inc_7      
 8    49 day       N             34.4   26.8 fine    inc_8      
 9    32 night     N             63.7   23.8 fine    inc_9      
10    60 night     N              2.53  24.4 warning inc_10     
# … with 240 more rows
…
