…
Residual standard error: 6.82 on 218 degrees of freedom
  (30 observations deleted due to missingness)
Multiple R-squared:  0.1117,	Adjusted R-squared:  0.1076 
F-statistic: 27.41 on 1 and 218 DF,  p-value: 3.863e-07

m1.diag.metrics <- augment(m1)
[1] 33
head(m1.diag.metrics)
[1] 34
# A tibble: 6 x 10
  .rownames   bac   age .fitted .se.fit .resid    .hat .sigma  .cooksd .std.resid
  <chr>     <dbl> <dbl>   <dbl>   <dbl>  <dbl>   <dbl>  <dbl>    <dbl>      <dbl>
1 1          17.7    39    23.7   0.470  -5.98 0.00476   6.82 0.00185      -0.879
2 2          22.1    28    25.3   0.610  -3.14 0.00800   6.83 0.000863     -0.462
3 3          32.8    38    23.8   0.477   8.95 0.00489   6.81 0.00425       1.32 
4 4          20.5    51    22.0   0.514  -1.50 0.00568   6.83 0.000139     -0.220
5 5          29.4    56    21.3   0.588   8.11 0.00744   6.81 0.00534       1.19 
6 6          19.1    36    24.1   0.494  -5.00 0.00525   6.83 0.00143      -0.735
ggplot(m1.diag.metrics, aes(age, bac)) + geom_point() + stat_smooth(method = lm, 
    se = FALSE) + geom_segment(aes(xend = age, yend = .fitted), 
    color = "red", size = 0.3)
[1] 35
par(mfrow = c(2, 2))
[1] 36
$mfrow
[1] 1 1

plot(m1)
[1] 37
new.ages <- data.frame(age = c(50))
[1] 38
predict(m1, newdata = new.ages)
[1] 39
       1 
22.11824 
hist(x = residuals(m1), xlab = "Value of residual", main = "", 
    breaks = 20)
[1] 40
qqnorm(residuals(m1))
[1] 41
$x
 [1] -1.007621166 -0.428644689  1.472414089 -0.131405491  1.294610740 -0.786084163  0.639147053  0.755415026 -0.005696913  0.653186017
[11]  0.597760126  0.570731271 -1.823803278  1.086466335 -0.466428115  0.786084163 -0.517875045  0.988868932 -0.119921346  0.154427430
[21] -0.271035620 -0.899884315 -0.224038594  0.952370547  0.504889622 -0.051294427 -0.970458137 -1.321413172 -2.466702404  0.142906992
[31]  0.342707949  0.740344626 -1.107259340 -0.952370547  0.934589291  1.107259340 -0.212370265  0.247468774  1.543426728  0.584192348
[41]  0.189118426 -0.403794779 -0.416187607  0.259234199 -0.934589291  0.544113114  0.165968400  1.172717551 -0.235737507  0.849767170
 [ reached getOption("max.print") -- omitted 170 entries ]
…
