	####### B158625 R script #######

library(ggplot2, quietly = T)
[1] 1
[1] "ggplot2"   "readr"     "stats"     "graphics"  "grDevices" "utils"     "datasets"  "methods"   "base"     
library(psych, quietly = T)
[1] 2
 [1] "psych"     "ggplot2"   "readr"     "stats"     "graphics"  "grDevices" "utils"     "datasets"  "methods"   "base"     
load(url("https://edin.ac/2QCZNVu"))
[1] 3
[1] "drinkdriving" "officer_inc" 
head(drinkdriving)
[1] 4
# A tibble: 6 x 7
    age nighttime prior_offence speed   bac outcome incident_id
  <dbl> <chr>     <chr>         <dbl> <dbl> <chr>   <chr>      
1    39 night     N             48.0   17.7 fine    inc_1      
2    28 day       N             43.8   22.1 fine    inc_2      
3    38 night     DR50          47.3   32.8 fine    inc_3      
4    51 night     N             17.2   20.5 warning inc_4      
5    56 night     N              1.95  29.4 warning inc_5      
6    36 day       N             41.4   19.1 fine    inc_6      
outliers_1 <- function(obs, x = 2.5) {
    return(obs - mean(obs, na.rm = T) > (sd(obs, na.rm = T) * 
        x))
}
[1] 5
outliers_2 <- function(obs, x = 2.5) {
    return(abs(obs - mean(obs, na.rm = T)) > (sd(obs, na.rm = T) * 
        x))
}
[1] 6
table(drinkdriving$age)
[1] 7

14 15 16 17 18 19 20 21 22 23 24 25 26 27 28 29 30 31 32 33 34 35 36 37 38 39 40 41 42 43 44 45 46 47 48 49 50 51 52 53 54 55 56 57 58 
 1  5  2  3  1  2  3  6  2  5  8  3  2  2  5  4  4  4  6  5  9  8  3  4  2 10  5  6  5  3  2  3  4  5  2  3  3  3  6  3  5  4  3  4  4 
59 60 61 62 63 
 1  5  3  3  2 
 [ reached getOption("max.print") -- omitted 15 entries ]
…
