…
plot(drinkdriving$age)
[1] 7
summary(drinkdriving)
[1] 8
      age          nighttime         prior_offence          speed             bac           outcome          incident_id       
 Min.   : 14.00   Length:250         Length:250         Min.   :  0.00   Min.   : 3.987   Length:250         Length:250        
 1st Qu.: 30.00   Class :character   Class :character   1st Qu.: 30.92   1st Qu.:19.264   Class :character   Class :character  
 Median : 40.50   Mode  :character   Mode  :character   Median : 40.64   Median :23.609   Mode  :character   Mode  :character  
 Mean   : 46.00                                         Mean   : 40.49   Mean   :23.605                                        
 3rd Qu.: 55.25                                         3rd Qu.: 48.84   3rd Qu.:27.898                                        
 Max.   :297.00                                         Max.   :120.34   Max.   :65.764                                        
 NA's   :22                                                              NA's   :5                                             
head(drinkdriving)
[1] 9
# A tibble: 6 x 7
    age nighttime prior_offence speed   bac outcome incident_id
  <dbl> <chr>     <chr>         <dbl> <dbl> <chr>   <chr>      
1    39 night     N             48.0   17.7 fine    inc_1      
2    28 day       N             43.8   22.1 fine    inc_2      
3    38 night     DR50          47.3   32.8 fine    inc_3      
4    51 night     N             17.2   20.5 warning inc_4      
5    56 night     N              1.95  29.4 warning inc_5      
6    36 day       N             41.4   19.1 fine    inc_6      
drinkdriving$incident_id
[1] 10
 [1] "inc_1"  "inc_2"  "inc_3"  "inc_4"  "inc_5"  "inc_6"  "inc_7"  "inc_8"  "inc_9"  "inc_10" "inc_11" "inc_12" "inc_13" "inc_14"
[15] "inc_15" "inc_16" "inc_17" "inc_18" "inc_19" "inc_20" "inc_21" "inc_22" "inc_23" "inc_24" "inc_25" "inc_26" "inc_27" "inc_28"
[29] "inc_29" "inc_30" "inc_31" "inc_32" "inc_33" "inc_34" "inc_35" "inc_36" "inc_37" "inc_38" "inc_39" "inc_40" "inc_41" "inc_42"
[43] "inc_43" "inc_44" "inc_45" "inc_46" "inc_47" "inc_48" "inc_49" "inc_50"
 [ reached getOption("max.print") -- omitted 200 entries ]
…
