…
plot(model3)
[1] 44
warning_frames <- which(drinkdriving$outcome == "warning")
[1] 45
drinkdriving_fines = drinkdriving[-c(warning_frames), ]
[1] 46
fine_frames <- which(drinkdriving$outcome == "fine")
[1] 47
drinkdriving_warning <- drinkdriving[-c(fine_frames), ]
[1] 48
head(drinkdriving_fines)
[1] 49
# A tibble: 6 x 7
    age nighttime prior_offence speed   bac outcome incident_id
  <dbl>     <dbl> <chr>         <dbl> <dbl> <fct>   <chr>      
1    39         1 N                48    18 fine    inc_1      
2    28         2 N                44    22 fine    inc_2      
3    38         1 DR50             47    33 fine    inc_3      
4    36         2 N                41    19 fine    inc_6      
5    49         2 N                34    27 fine    inc_8      
6    32         1 N                64    24 fine    inc_9      
model3_fines <- glm(outcome ~ scale(speed) + scale(bac) + scale(age) + 
    nighttime + prior_offence, data = drinkdriving_fines, family = binomial)
[1] 50
summary(model3_fines)
[1] 51

Call:
glm(formula = outcome ~ scale(speed) + scale(bac) + scale(age) + 
    nighttime + prior_offence, family = binomial, data = drinkdriving_fines)

Deviance Residuals: 
       Min          1Q      Median          3Q         Max  
-2.409e-06  -2.409e-06  -2.409e-06  -2.409e-06  -2.409e-06  

Coefficients:
                              Estimate Std. Error z value Pr(>|z|)
(Intercept)                 -2.657e+01  2.869e+05       0        1
scale(speed)                -4.394e-15  3.344e+04       0        1
scale(bac)                   9.685e-15  3.369e+04       0        1
scale(age)                   3.636e-16  3.044e+04       0        1
nighttime                    2.746e-14  6.071e+04       0        1
prior_offenceCD60,CD10,DR80 -5.036e-14  5.069e+05       0        1
prior_offenceCD60,CD60      -4.120e-14  5.165e+05       0        1
prior_offenceDD20           -9.403e-15  3.625e+05       0        1
prior_offenceDR50           -7.492e-15  2.725e+05       0        1
prior_offenceDR80           -2.351e-14  3.390e+05       0        1
prior_offenceN              -1.268e-14  2.684e+05       0        1
prior_offencePL10           -4.114e-14  4.446e+05       0        1
 [ reached getOption("max.print") -- omitted 2 rows ]
…
