…
  14.00   30.00   40.50   46.00   55.25  297.00      22 
plot(drinkdriving$age)
[1] 44
drinkdriving$age[drinkdriving$age >= 107] <- NA
[1] 45
plot(drinkdriving$age)
[1] 46
sum(!complete.cases(drinkdriving))
[1] 47
[1] 30
drinkdriving4 <- na.omit(drinkdriving)
[1] 48
drinkdriving4

# A tibble: 220 x 11
     age nighttime prior_offence speed   bac outcome incident_id dr    previous_offender non_dr outcome_fine
   <dbl> <fct>     <chr>         <dbl> <dbl> <fct>   <chr>       <fct> <fct>             <fct>  <fct>       
 1    39 night     N             48.0   17.7 fine    inc_1       0     0                 0      1           
 2    28 day       N             43.8   22.1 fine    inc_2       0     0                 0      1           
 3    38 night     DR50          47.3   32.8 fine    inc_3       1     1                 0      1           
 4    51 night     N             17.2   20.5 warning inc_4       0     0                 0      0           
 5    56 night     N              1.95  29.4 warning inc_5       0     0                 0      0           
 6    36 day       N             41.4   19.1 fine    inc_6       0     0                 0      1           
 7    81 night     N              1.01  21.4 warning inc_7       0     0                 0      0           
 8    49 day       N             34.4   26.8 fine    inc_8       0     0                 0      1           
 9    32 night     N             63.7   23.8 fine    inc_9       0     0                 0      1           
10    60 night     N              2.53  24.4 warning inc_10      0     0                 0      0           
# … with 210 more rows


drinkdriving44 <- drinkdriving4
[1] 50
drinkdriving44$age[drinkdriving44$age <= 15] <- NA
[1] 51
drinkdriving44 <- na.omit(drinkdriving44)
[1] 52
drinkdriving44

# A tibble: 214 x 11
     age nighttime prior_offence speed   bac outcome incident_id dr    previous_offender non_dr outcome_fine
   <dbl> <fct>     <chr>         <dbl> <dbl> <fct>   <chr>       <fct> <fct>             <fct>  <fct>       
 1    39 night     N             48.0   17.7 fine    inc_1       0     0                 0      1           
 2    28 day       N             43.8   22.1 fine    inc_2       0     0                 0      1           
 3    38 night     DR50          47.3   32.8 fine    inc_3       1     1                 0      1           
 4    51 night     N             17.2   20.5 warning inc_4       0     0                 0      0           
 5    56 night     N              1.95  29.4 warning inc_5       0     0                 0      0           
 6    36 day       N             41.4   19.1 fine    inc_6       0     0                 0      1           
 7    81 night     N              1.01  21.4 warning inc_7       0     0                 0      0           
 8    49 day       N             34.4   26.8 fine    inc_8       0     0                 0      1           
 9    32 night     N             63.7   23.8 fine    inc_9       0     0                 0      1           
10    60 night     N              2.53  24.4 warning inc_10      0     0                 0      0           
# … with 204 more rows
…
x <- seq(min(14), max(107), length.out = 49)
[1] 189
y <- exp(-4.84572 + (-0.04666 * x))
[1] 190
plot(y ~ x, xlab = "age", ylab = "p(getting a fine)", type = "p", 
    col = "black")
[1] 191
drinkdriving2 <- drinkdriving[order(drinkdriving$incident_id), 
    ]
[1] 192
drinkdriving2

# A tibble: 250 x 11
     age nighttime prior_offence speed   bac outcome incident_id dr    previous_offender non_dr outcome_fine
   <dbl> <fct>     <chr>         <dbl> <dbl> <fct>   <chr>       <fct> <fct>             <fct>  <fct>       
 1    39 night     N             48.0  17.7  fine    inc_1       0     0                 0      1           
 2    60 night     N              2.53 24.4  warning inc_10      0     0                 0      0           
 3    68 night     N             25.5  10.5  warning inc_100     0     0                 0      0           
 4    35 day       N             44.4   8.55 fine    inc_101     0     0                 0      1           
 5    47 day       N             37.1  20.8  fine    inc_102     0     0                 0      1           
 6    41 night     N             40.4  18.8  fine    inc_103     0     0                 0      1           
 7    36 night     DR50          45.4  18.0  fine    inc_104     1     1                 0      1           
 8    42 night     N             46.8  25.0  fine    inc_105     0     0                 0      1           
 9    21 night     N             55.8  29.8  fine    inc_106     0     0                 0      1           
10    86 night     TS70          29.9  25.9  fine    inc_107     0     1                 1      1           
# … with 240 more rows
…
drinkdriving2$officer_id <- as.factor(officer_inc2$officer)
[1] 196
drinkdriving2

# A tibble: 250 x 12
     age nighttime prior_offence speed   bac outcome incident_id dr    previous_offender non_dr outcome_fine officer_id
   <dbl> <fct>     <chr>         <dbl> <dbl> <fct>   <chr>       <fct> <fct>             <fct>  <fct>        <fct>     
 1    39 night     N             48.0  17.7  fine    inc_1       0     0                 0      1            AS        
 2    60 night     N              2.53 24.4  warning inc_10      0     0                 0      0            AS        
 3    68 night     N             25.5  10.5  warning inc_100     0     0                 0      0            AS        
 4    35 day       N             44.4   8.55 fine    inc_101     0     0                 0      1            NP        
 5    47 day       N             37.1  20.8  fine    inc_102     0     0                 0      1            AS        
 6    41 night     N             40.4  18.8  fine    inc_103     0     0                 0      1            NP        
 7    36 night     DR50          45.4  18.0  fine    inc_104     1     1                 0      1            NP        
 8    42 night     N             46.8  25.0  fine    inc_105     0     0                 0      1            AS        
 9    21 night     N             55.8  29.8  fine    inc_106     0     0                 0      1            NP        
10    86 night     TS70          29.9  25.9  fine    inc_107     0     1                 1      1            IT        
# … with 240 more rows
…
