	####### B160555 R script #######

library(ggplot2, quietly = T)
[1] 1
[1] "ggplot2"   "readr"     "stats"     "graphics"  "grDevices" "utils"     "datasets"  "methods"   "base"     
library(psych, quietly = T)
[1] 2
 [1] "psych"     "ggplot2"   "readr"     "stats"     "graphics"  "grDevices" "utils"     "datasets"  "methods"   "base"     
load(url("https://edin.ac/2QCZNVu"))
[1] 3
[1] "drinkdriving" "officer_inc" 
head(drinkdriving)
[1] 4
# A tibble: 6 x 7
    age nighttime prior_offence speed   bac outcome incident_id
  <dbl> <chr>     <chr>         <dbl> <dbl> <chr>   <chr>      
1    39 night     N             48.0   17.7 fine    inc_1      
2    28 day       N             43.8   22.1 fine    inc_2      
3    38 night     DR50          47.3   32.8 fine    inc_3      
4    51 night     N             17.2   20.5 warning inc_4      
5    56 night     N              1.95  29.4 warning inc_5      
6    36 day       N             41.4   19.1 fine    inc_6      
head(officer_inc)
[1] 5
  officer incident_id
1      AS     inc_189
2      IT      inc_50
3      IT     inc_159
4      AS     inc_178
5      IT     inc_184
6      AS     inc_198
with(drinkdriving, speed <- round(speed, digits = 2))
[1] 6
 [1] 47.96 43.83 47.26 17.22  1.95 41.40  1.01 34.38 63.75  2.53 50.05 47.66 46.21 35.04 45.91 41.97 59.50 38.54 45.29 33.66
[21] 66.36 59.54 26.21 49.69 35.76 48.88 44.46 34.64 36.61 24.92 13.07 19.01 41.01 36.34 56.43 30.14 45.72 41.61 53.77 46.42
[41] 23.60 52.98 41.67 38.87 41.54 32.60 61.11 39.69 12.25 64.66
 [ reached getOption("max.print") -- omitted 200 entries ]
…
