Chapter 12 Bootstrapping and Confidence Intervals | Data Analysis for Psychology in R (dapR1) - Labs
…
If we resampled our 50 player sample without replacement, we would simply end up with the same 50 players, and therefore the same mean!

► Solution

Take a sample. We have a sample of 50 players and their salaries, which we can read in to R as follows:

library(tidyverse)
library(moderndive)

nfl_sample <- read_csv("https://edin.ac/2NATDCQ")

nfl_sample

## # A tibble: 50 x 5
##    Player          Position Team     TotalMoney YearlySalary
##    <chr>           <chr>    <chr>         <dbl>        <dbl>
##  1 Marcus Williams CB       Jets           1.53        0.51 
##  2 Antonio Smith   34DE     Broncos        2           2    
##  3 Dion Jordan     43DE     Dolphins      20.6         5.14 
##  4 Carl Davis      34DT     Ravens         2.95        0.738
##  5 Jason Hatcher   34DE     Redskins      27.5         6.88 
##  6 Caushaud Lyons  43DE     Steelers       1.58        0.528
##  7 Thomas Rawls    RB       Seahawks       1.59        0.53 
##  8 Michael Griffin S        Titans        35           7    
##  9 Winston Guy     S        Colts          1.42        0.71 
## 10 Kevin White     WR       Bears         16.6         4.14 
## # … with 40 more rows
…
## # A tibble: 1 x 1
##   avg_salary
##        <dbl>
## 1       2.11

Sample our original sample, with replacement, and compute the mean:

nfl_resample1 <- nfl_sample %>%
  rep_sample_n(size = 50, replace = TRUE)

nfl_resample1

## # A tibble: 50 x 6
## # Groups:   replicate [1]
##    replicate Player          Position Team       TotalMoney YearlySalary
##        <int> <chr>           <chr>    <chr>           <dbl>        <dbl>
##  1         1 Justin Britt    RT       Seahawks         3.55        0.864
##  2         1 Zach Kerr       43DT     Colts            1.54        0.512
##  3         1 Michael Harris  LT       Vikings          1.54        1.54 
##  4         1 Andre Caldwell  WR       Broncos          2.7         1.35 
##  5         1 Kyle Brindza    K        Buccaneers       1.58        0.528
##  6         1 Brett Kern      P        Titans          15           3    
##  7         1 Aaron Donald    43DT     Rams            10.1         2.53 
##  8         1 Aaron Williams  S        Bills           26.0         6.50 
##  9         1 Trevor Robinson C        Chargers         1.7         0.85 
## 10         1 Josh Mitchell   CB       Colts            1.58        0.526
## # … with 40 more rows
…
## # A tibble: 1 x 2
##   replicate avg_salary
##       <int>      <dbl>
## 1         1       2.34

and again..

nfl_resample2 <- nfl_sample %>%
  rep_sample_n(size = 50, replace = TRUE)

nfl_resample2

## # A tibble: 50 x 6
## # Groups:   replicate [1]
##    replicate Player          Position Team     TotalMoney YearlySalary
##        <int> <chr>           <chr>    <chr>         <dbl>        <dbl>
##  1         1 Kelvin Beachum  RT       Steelers       2.15        0.536
##  2         1 DJ Williams     ILB      Bears          1.5         1.5  
##  3         1 Marqueston Huff S        Titans         2.65        0.664
##  4         1 Jason Hatcher   34DE     Redskins      27.5         6.88 
##  5         1 Brett Kern      P        Titans        15           3    
##  6         1 Fletcher Cox    34DE     Eagles        10.2         2.56 
##  7         1 Breno Giacomini RT       Jets          18           4.5  
##  8         1 Kevin White     WR       Bears         16.6         4.14 
##  9         1 DJ Williams     ILB      Bears          1.5         1.5  
## 10         1 Khalif Barnes   RT       Raiders        1.5         1.5  
## # … with 40 more rows
…
Key point

If we resample with replacement from our original sample enough times, then the distribution of all the means of these resamples begins to approximate the sampling distribution.

We can speed up this process by getting R to take many resamples for us, in the same way that last week we asked it to take many samples from a population.

nfl_2000resamples <- nfl_sample %>% 
  rep_sample_n(size = 50, replace = TRUE, reps = 2000)

The above line of code takes 2000 samples of size 50, by sampling with replacement from our original sample of size 50. \(2000 \times 50 = 100,000\), so this results in a tibble with \(100,000\) rows.

nfl_2000resamples

## # A tibble: 100,000 x 6
## # Groups:   replicate [2,000]
##    replicate Player          Position Team     TotalMoney YearlySalary
##        <int> <chr>           <chr>    <chr>         <dbl>        <dbl>
##  1         1 Josh Mitchell   CB       Colts         1.58         0.526
##  2         1 Justin Britt    RT       Seahawks      3.55         0.864
##  3         1 Kevin White     WR       Bears        16.6          4.14 
##  4         1 Stephen Hill    WR       Panthers      0.595        0.595
##  5         1 Aaron Williams  S        Bills        26.0          6.50 
##  6         1 Marqueston Huff S        Titans        2.65         0.664
##  7         1 Dion Jordan     43DE     Dolphins     20.6          5.14 
##  8         1 David Bass      34OLB    Titans        1.26         0.63 
##  9         1 Khalif Barnes   RT       Raiders       1.5          1.5  
## 10         1 Trai Turner     G        Panthers      2.79         0.698
## # … with 99,990 more rows
…
► Question

Generate 1000 bootstrap resamples to create the bootstrap distribution.

► Solution

hwood_bs_distribution <- hollywood_sample %>%
  rep_sample_n(25, replace = TRUE, reps = 1000) %>%
  group_by(replicate) %>%
  summarise(avg_rating = mean(RottenTomatoes))

hwood_bs_distribution

## # A tibble: 1,000 x 2
##    replicate avg_rating
##        <int>      <dbl>
##  1         1       58.5
##  2         2       51.1
##  3         3       47.5
##  4         4       53.1
##  5         5       56.8
##  6         6       50.4
##  7         7       52.2
##  8         8       44.7
##  9         9       57.7
## 10        10       56.9
## # … with 990 more rows
…
