Chapter 11 Sampling distributions | Data Analysis for Psychology in R (dapR1) - Labs
…
In order to randomly sample players, we will use the package moderndive. If you do not have it installed, run the following command:

install.packages("moderndive")

We then load the package and create a sample of size \(n = 50\) players:

library(moderndive)

nfl_sample_1 <- nfl %>%
  rep_sample_n(size = 50)

nfl_sample_1

## # A tibble: 50 x 3
## # Groups:   replicate [1]
##    replicate Player              YearlySalary
##        <int> <chr>                      <dbl>
##  1         1 Craig Dahl                 0.87 
##  2         1 Jarrett Bush               1.75 
##  3         1 Shayne Graham              0.98 
##  4         1 Christian Covington        0.593
##  5         1 Pat McAfee                 2.9  
##  6         1 Ron Parker                 5    
##  7         1 Bryan Walters              0.723
##  8         1 John Greco                 2.09 
##  9         1 Trenton Robinson           0.68 
## 10         1 Paul Worrilow              0.496
## # … with 40 more rows
…
We can see that the average salary in our sample is \(\bar{x} =\) 2.1 million dollars.

The sample mean, 2.1, is close to the population mean, 2.24, even if not exactly the same. We are not surprised of this result: we do not expect the mean of every sample to be exactly equal to the population mean, but we do hope that they are somewhat close.

Question 3: Take another sample of size \(n = 50\) players and compute the average salary for the new sample. How does it compare with the mean from the previous sample?

Let’s take another random sample of size 50 and compute the mean salary:

nfl_sample_2 <- nfl %>%
  rep_sample_n(size = 50)

nfl_sample_2

## # A tibble: 50 x 3
## # Groups:   replicate [1]
##    replicate Player           YearlySalary
##        <int> <chr>                   <dbl>
##  1         1 Trevor Scott            0.73 
##  2         1 Scott Crichton          0.755
##  3         1 NaVorro Bowman          9.05 
##  4         1 Brian Dixon             0.51 
##  5         1 Kyle Williams           0.745
##  6         1 Tony Jefferson          0.498
##  7         1 Anthony Hitchens        0.664
##  8         1 Cedric Ogbuehi          2.33 
##  9         1 Jordan Poyer            0.555
## 10         1 Brent Celek             4.88 
## # … with 40 more rows
…
The statistic computed on the second sample is \(\bar{x} =\) 2.05. Again, this is similar to the population parameter, \(\mu =\) 2.24.
We also note that the mean computed on the second sample (2.05) is different from the mean computed on the first sample (2.1).

We could have immediately obtained two samples, each of size \(n = 50\) units. This requires that we repeat/replicate two times the activity of sampling 50 units from the entire population. Every replicated sampling of 50 units from the population is done “from scratch”, so that the population is always unchanged from replicate to replicate.
This is done in the function rep_sample_n(size = 50) by including the extra argument reps = 2:

nfl_samples <- nfl %>%
  rep_sample_n(size = 50, reps = 2)

nfl_samples

## # A tibble: 100 x 3
## # Groups:   replicate [2]
##    replicate Player             YearlySalary
##        <int> <chr>                     <dbl>
##  1         1 Andrew Luck               7.65 
##  2         1 Antonio Brown             8.39 
##  3         1 Patrick Chung             2.4  
##  4         1 Chris Williams            3.29 
##  5         1 Chris Lewis-Harris        0.585
##  6         1 Lance Louis               1.01 
##  7         1 Adam Humphries            0.525
##  8         1 Wade Keliikipi            0.525
##  9         1 Dustin Colquitt           3.75 
## 10         1 Tyronne Green             0.745
## # … with 90 more rows
…
Figure 11.4: Sample means from two samples of size \(n = 50\) with population mean \(\mu\) marked by a red vertical line.

Clearly, we can extend the repeated sampling procedure to more than just two samples of size = 50.
Let us now obtain 2000 replicated samples, all of size 50, from the same NFL population:

nfl_samples <- nfl %>%
  rep_sample_n(size = 50, reps = 2000)

nfl_samples

## # A tibble: 100,000 x 3
## # Groups:   replicate [2,000]
##    replicate Player           YearlySalary
##        <int> <chr>                   <dbl>
##  1         1 Matthew Masifilo        0.555
##  2         1 Kyle Juszczyk           0.615
##  3         1 Gabe Jackson            0.714
##  4         1 Akeem Ayers             3    
##  5         1 Andy Mulumba            0.497
##  6         1 Corey Linsley           0.601
##  7         1 Billy Turner            0.787
##  8         1 Bennett Jackson         0.435
##  9         1 Chase Daniel            3.33 
## 10         1 Scott Lutrus            0.465
## # … with 99,990 more rows

This tibble has \(50 \times 2000 = 100,000\) rows. The first 50 players are part of the 1st sample, the next 50 belong to the 2nd sample, and so on…

We can now compute the mean of each of the 2000 samples of size 50, obtaining a tibble of 2000 sample means:

nfl_sample_means <- nfl_samples %>%
  group_by(replicate) %>%
  summarise(avg = mean(YearlySalary))

nfl_sample_means

## # A tibble: 2,000 x 2
##    replicate   avg
##        <int> <dbl>
##  1         1  2.74
##  2         2  1.69
##  3         3  2.44
##  4         4  2.29
##  5         5  2.37
##  6         6  2.63
##  7         7  2.46
##  8         8  1.99
##  9         9  2.29
## 10        10  2.28
## # … with 1,990 more rows
…
Figure 11.7: Comparing accuracy and precision. (From www.moderndive.com)

11.8 Lab: Hollywood movies

The following code chunk reads in data from over 900 Hollywood movies produced between 2007 and 2013. Consider it as the entire population of movies produced in Hollywood in that time period.

hollywood <- read_tsv('https://edin.ac/2N9yHms')
hollywood

## # A tibble: 970 x 16
##    Movie LeadStudio RottenTomatoes AudienceScore Story Genre TheatersOpenWeek OpeningWeekend
##    <chr> <chr>               <dbl>         <dbl> <chr> <chr>            <dbl>          <dbl>
##  1 Spid… Sony                   61            54 Meta… Acti…             4252          151. 
##  2 Shre… Paramount              42            57 Quest Anim…             4122          122. 
##  3 Tran… Paramount              57            89 Mons… Acti…             4011           70.5
##  4 Pira… Disney                 45            74 Resc… Acti…             4362          115. 
##  5 Harr… Warner Br…             78            82 Quest Adve…             4285           77.1
##  6 I Am… Warner Br…             69            69 Quest Thri…             3606           77.2
##  7 The … Universal              93            91 Purs… Thri…             3660           69.3
##  8 Nati… Disney                 31            72 The … Thri…             3832           44.8
##  9 Alvi… Fox                    26            73 Come… Anim…             3475           44.3
## 10 300   Warner Br…             60            90 Sacr… Acti…             3103           70.9
## # … with 960 more rows, and 8 more variables: BOAvgOpenWeekend <dbl>, DomesticGross <dbl>,
## #   ForeignGross <dbl>, WorldGross <dbl>, Budget <dbl>, Profitability <dbl>, OpenProfit <dbl>,
## #   Year <dbl>
…
Extracting relevant variables

Extract from the hollywood tibble the three variables of interest (Movie, Genre, Budget) and keep the movies for which we have all information (no missing entries).

► Solution

We can extract variables using the function select(), while to keep the rows for which we have all measurements we use na.omit():

hollywood <- hollywood %>%
  select(Movie, Genre, Budget) %>%
  na.omit
hollywood

## # A tibble: 665 x 3
##    Movie                                     Genre     Budget
##    <chr>                                     <chr>      <dbl>
##  1 Spider-Man 3                              Action       258
##  2 Shrek the Third                           Animation    160
##  3 Transformers                              Action       150
##  4 Pirates of the Caribbean: At World's End  Action       300
##  5 Harry Potter and the Order of the Phoenix Adventure    150
##  6 I Am Legend                               Thriller     150
##  7 The Bourne Ultimatum                      Thriller     110
##  8 National Treasure: Book of Secrets        Thriller     130
##  9 Alvin and the Chipmunks                   Animation     70
## 10 300                                       Action        65
## # … with 655 more rows
…
