Chapter 18 Paired T-Test | Data Analysis for Psychology in R (dapR1) - Labs
…
(source: https://www.fromthebottomoftheheap.net/2019/10/25/pivoting-tidily/)

Recall that our data was wide:

acedata

## # A tibble: 25 x 4
##    participant ace_60 ace_70 diff_score
##    <chr>        <dbl>  <dbl>      <dbl>
##  1 sub1            93     85         -8
##  2 sub2            95     92         -3
##  3 sub3            93     90         -3
##  4 sub4            93     95          2
##  5 sub5            96     88         -8
##  6 sub6            91     85         -6
##  7 sub7            94     92         -2
##  8 sub8            90     90          0
##  9 sub9            90     92          2
## 10 sub10           96     91         -5
## # … with 15 more rows

We can make it long, by:

acedata_long <- 
  acedata %>% 
  pivot_longer(ace_60:ace_70, names_to = "age", values_to="ace_score")

acedata_long

## # A tibble: 50 x 4
##    participant diff_score age    ace_score
##    <chr>            <dbl> <chr>      <dbl>
##  1 sub1                -8 ace_60        93
##  2 sub1                -8 ace_70        85
##  3 sub2                -3 ace_60        95
##  4 sub2                -3 ace_70        92
##  5 sub3                -3 ace_60        93
##  6 sub3                -3 ace_70        90
##  7 sub4                 2 ace_60        93
##  8 sub4                 2 ace_70        95
##  9 sub5                -8 ace_60        96
## 10 sub5                -8 ace_70        88
## # … with 40 more rows
…
We can turn it back to wide using pivot_wider():

acedata_long %>%
  pivot_wider(names_from = age, values_from = ace_score)

## # A tibble: 25 x 4
##    participant diff_score ace_60 ace_70
##    <chr>            <dbl>  <dbl>  <dbl>
##  1 sub1                -8     93     85
##  2 sub2                -3     95     92
##  3 sub3                -3     93     90
##  4 sub4                 2     93     95
##  5 sub5                -8     96     88
##  6 sub6                -6     91     85
##  7 sub7                -2     94     92
##  8 sub8                 0     90     90
##  9 sub9                 2     90     92
## 10 sub10               -5     96     91
## # … with 15 more rows
…
