Chapter 4 Week 4 | Data Analysis for Psychology in R (dapR1) - Labs
…
Nice! Now let’s see how we can work with categorical data.

4.6 Categorical variables

In the dataset we are working with we have one interesting categorical variable, the cut of the diamond. It has five levels (Fair, Good, Very Good, Premium, Ideal). Check what it looks like:

# Check 'cut'
select(data, cut)

## # A tibble: 53,940 x 1
##    cut      
##    <ord>    
##  1 Ideal    
##  2 Premium  
##  3 Good     
##  4 Premium  
##  5 Good     
##  6 Very Good
##  7 Very Good
##  8 Very Good
##  9 Fair     
## 10 Very Good
## # … with 53,930 more rows
…
Select variable carat.

# Check carat
select(data, carat)

## # A tibble: 53,940 x 1
##    carat
##    <dbl>
##  1 0.23 
##  2 0.21 
##  3 0.23 
##  4 0.290
##  5 0.31 
##  6 0.24 
##  7 0.24 
##  8 0.26 
##  9 0.22 
## 10 0.23 
## # … with 53,930 more rows
…
