Chapter 1 Collecting Data | bookdown-demo.utf8
…
the url (in the top bar of your browser) ends with .csv.

This stands for ‘comma separated value’.

The tidyverse package which we loaded at the top has a function to read this sort of data: read_csv().

Task

Read the data into R. You can do this by giving read_csv() the url.

Hint: If you just type:

read_csv("https://uoe-psychology.github.io/uoe_psystats/multivar/data/women_computer_science.csv")

# A tibble: 192 x 3
    date field            pct_women_majors
   <dbl> <chr>                       <dbl>
 1  1966 Computer.science            0.146
 2  1967 Computer.science            0.108
 3  1968 Computer.science            0.12 
 4  1969 Computer.science            0.13 
 5  1970 Computer.science            0.129
 6  1971 Computer.science            0.136
 7  1972 Computer.science            0.136
 8  1973 Computer.science            0.149
 9  1974 Computer.science            0.164
10  1975 Computer.science            0.19 
# … with 182 more rows
…
